module gitlab.com/gb_go/level2

go 1.18

require (
	github.com/gorilla/websocket v1.5.0
	github.com/valyala/fasthttp v1.35.0
)

require (
	github.com/andybalholm/brotli v1.0.4 // indirect
	github.com/klauspost/compress v1.15.0 // indirect
	github.com/valyala/bytebufferpool v1.0.0 // indirect
)
